{
  "about": {
    "aboutContent": "<div style=\"text-align: center;\"><img src=\"widgets/FSMBGIS_About/images/MapViewerLogo.png\" /></div><div style=\"text-align: center;\"><font size=\"4\">FSMB GIS</font></div><div style=\"text-align: center;\">For Help e-mail:</div><div style=\"text-align: center;\">help@fsmbgis.on.spiceworks.com<br /></div>"
  }
}
